Diamonds quality
…
We explore the qualities of diamonds and their association with
price. Why are low quality diamonds (with respect to cut, color and
clarity) more expensive?

## Analysis
library(dplyr)
library(ggplot2)
library(modelr)

Here is the dataset:

select(diamonds, price, carat:clarity) 

## # A tibble: 53,940 x 5
##    price carat cut       color clarity
##    <int> <dbl> <ord>     <ord> <ord>  
##  1   326  0.23 Ideal     E     SI2    
##  2   326  0.21 Premium   E     SI1    
##  3   327  0.23 Good      E     VS1    
##  4   334  0.29 Premium   I     VS2    
##  5   335  0.31 Good      J     SI2    
##  6   336  0.24 Very Good J     VVS2   
##  7   336  0.24 Very Good I     VVS1   
##  8   337  0.26 Very Good H     SI1    
##  9   337  0.22 Fair      E     VS2    
## 10   338  0.23 Very Good H     VS1    
## # ... with 53,930 more rows
…
